…
``` r
# view the data set
tbl_df(Franchise) %>% 
  select(id,contains("Name")) %>% 
  rename("franchiseId"=id)
#> # A tibble: 38 x 3
#>    franchiseId teamCommonName teamPlaceName
#>          <int> <chr>          <chr>        
#>  1           1 Canadiens      Montréal     
#>  2           2 Wanderers      Montreal     
#>  3           3 Eagles         St. Louis    
#>  4           4 Tigers         Hamilton     
#>  5           5 Maple Leafs    Toronto      
#>  6           6 Bruins         Boston       
#>  7           7 Maroons        Montreal     
#>  8           8 Americans      Brooklyn     
#>  9           9 Quakers        Philadelphia 
#> 10          10 Rangers        New York     
#> # ... with 28 more rows
tbl_df(TeamTotal) %>% 
  select(franchiseId,teamId,activeFranchise,gameTypeId,losses,wins,ties,points,pointPctg) %>%
  mutate(winPct= wins/(losses+wins+ties))
#> # A tibble: 104 x 10
#>    franchiseId teamId activeFranchise gameTypeId losses  wins  ties points
#>          <int>  <int>           <int>      <int>  <int> <int> <int>  <int>
#>  1          23      1               1          2   1181  1375   219   3131
#>  2          23      1               1          3    120   137    NA      2
#>  3          22      2               1          2   1570  1656   347   3818
#>  4          22      2               1          3    124   148    NA      8
#>  5          10      3               1          2   2693  2856   808   6667
#>  6          10      3               1          3    263   244     8      0
#>  7          16      4               1          3    212   221    NA      4
#>  8          16      4               1          2   1429  2054   457   4740
#>  9          17      5               1          2   1718  1866   383   4263
#> 10          17      5               1          3    175   206    NA     12
#> # ... with 94 more rows, and 2 more variables: pointPctg <dbl>, winPct <dbl>
tbl_df(Season) %>% 
  select(14,6,8,10,12,13,mostLosses,mostPoints,mostTies,mostWins,mostWinsSeasons)
#> # A tibble: 38 x 11
#>    franchiseId fewestLosses fewestPoints fewestTies fewestWins fewestWinsSeaso~
#>          <int>        <int>        <int>      <int>      <int> <chr>           
#>  1          38           24           86         NA         39 2019-20 (82)    
#>  2          37           25           68         10         25 2000-01 (82)    
#>  3          36           22           57          8         22 2001-02 (82)    
#>  4          35           20           39          7         14 1999-00 (82)    
#>  5          34           18           63          7         27 2002-03 (82)    
#>  6          33           26           60          6         22 2000-01 (82), 2~
#>  7          32           20           65          5         25 2000-01 (82)    
#>  8          31           16           44          6         17 1997-98 (82)    
#>  9          30           21           24          4         10 1992-93 (84)    
#> 10          29           18           24          2         11 1992-93 (84)    
#> # ... with 28 more rows, and 5 more variables: mostLosses <int>,
#> #   mostPoints <int>, mostTies <int>, mostWins <int>, mostWinsSeasons <chr>
  
tbl_df(Goalie) %>% 
  select(4,3,losses,ties,wins) %>%
  mutate(winPct= wins/(losses+wins+ties))
#> # A tibble: 1,056 x 6
#>    franchiseId firstName  losses  ties  wins  winPct
#>          <int> <chr>       <int> <int> <int>   <dbl>
#>  1          38 Marc-Andre     50     0    91   0.645
#>  2          38 Maxime          8     0     6   0.429
#>  3          38 Oscar           1     0     3   0.75 
#>  4          38 Malcolm        21     0    30   0.588
#>  5          38 Dylan           0     0     0 NaN    
#>  6          38 Garret          0     0     0 NaN    
#>  7          38 Robin           0     0     3   1    
#>  8          37 Josh           59    NA    60  NA    
#>  9          37 Niklas        142    NA   194  NA    
#> 10          37 Dwayne         71    26    62   0.390
#> # ... with 1,046 more rows

tbl_df(Skater) %>% 
  select(5,4,goals,points)
#> # A tibble: 16,871 x 4
#>    franchiseId firstName goals points
#>          <int> <chr>     <int>  <int>
#>  1          38 Deryk         8     41
#>  2          38 James        25     44
#>  3          38 Ryan         17     37
#>  4          38 David        16     66
#>  5          38 Jason         0      1
#>  6          38 Luca          2     14
#>  7          38 Brayden      11     40
#>  8          38 Reilly       68    167
#>  9          38 Tomas         4      6
#> 10          38 Brandon      15     23
#> # ... with 16,861 more rows
```
…
